<svg width="75" height="120" viewBox="0 0 75 120" fill="none" xmlns="http://www.w3.org/2000/svg">
<g clip-path="url(#clip0)">
<path d="M69.375 37.5H42.3281L52.3125 7.07812C53.25 3.51563 50.5547 0 46.875 0H13.125C10.3125 0 7.92185 2.08594 7.54685 4.875L0.0468517 61.125C-0.398461 64.5 2.22654 67.5 5.62498 67.5H33.4453L22.6406 113.086C21.7969 116.648 24.5156 120 28.1015 120C30.0703 120 31.9453 118.969 32.9765 117.188L74.2265 45.9375C76.4062 42.2109 73.7109 37.5 69.375 37.5Z" fill="#F9CA24"/>
<path d="M69.375 37.5H42.3281L52.3125 7.07812C53.25 3.51563 50.5547 0 46.875 0H13.125C10.3125 0 7.92185 2.08594 7.54685 4.875L0.0468517 61.125C-0.398461 64.5 2.22654 67.5 5.62498 67.5H33.4453L22.6406 113.086C21.7969 116.648 24.5156 120 28.1015 120C30.0703 120 31.9453 118.969 32.9765 117.188L74.2265 45.9375C76.4062 42.2109 73.7109 37.5 69.375 37.5Z" fill="url(#paint0_linear)"/>
</g>
<defs>
<linearGradient id="paint0_linear" x1="37.4979" y1="0" x2="37.4979" y2="120" gradientUnits="userSpaceOnUse">
<stop stop-color="#F8D800"/>
<stop offset="1" stop-color="white" stop-opacity="0"/>
</linearGradient>
<clipPath id="clip0">
<rect width="75" height="120" fill="white"/>
</clipPath>
</defs>
</svg>
