<svg width="120" height="120" viewBox="0 0 120 120" fill="none" xmlns="http://www.w3.org/2000/svg">
<g clip-path="url(#clip0)">
<path d="M65.61 55.8978H53.217V44.7628H65.61V55.8978ZM65.61 17.6001H53.217V28.9788H65.61V17.6001ZM80.2715 44.744H67.8785V55.8791H80.2715V44.744ZM50.9672 31.2283H38.5743V42.4945H50.9672V31.2283ZM65.61 31.2283H53.217V42.4945H65.61V31.2283ZM117.506 49.9741C114.807 48.1558 108.582 47.4997 103.801 48.3995C103.182 43.9005 100.67 39.9826 96.0954 36.4584L93.4706 34.715L91.7269 37.3394C88.2772 42.5508 87.3397 51.1364 91.0332 56.7976C89.4021 57.6787 86.1961 58.8784 81.9588 58.8034H0.458142C-1.173 68.3263 1.54557 80.6985 8.70758 89.1904C15.6634 97.4198 26.0876 101.6 39.718 101.6C69.2285 101.6 91.0707 88.0094 101.289 63.3211C105.301 63.3961 113.963 63.3399 118.406 54.848C118.688 54.3794 119.644 52.3736 120 51.6425L117.506 49.9741ZM21.6817 44.744H9.30754V55.8791H21.7004V44.744H21.6817ZM36.3244 44.744H23.9315V55.8791H36.3244V44.744ZM50.9672 44.744H38.5743V55.8791H50.9672V44.744ZM36.3244 31.2283H23.9315V42.4945H36.3244V31.2283Z" fill="#2496ED"/>
<path d="M65.61 55.8978H53.217V44.7628H65.61V55.8978ZM65.61 17.6001H53.217V28.9788H65.61V17.6001ZM80.2715 44.744H67.8785V55.8791H80.2715V44.744ZM50.9672 31.2283H38.5743V42.4945H50.9672V31.2283ZM65.61 31.2283H53.217V42.4945H65.61V31.2283ZM117.506 49.9741C114.807 48.1558 108.582 47.4997 103.801 48.3995C103.182 43.9005 100.67 39.9826 96.0954 36.4584L93.4706 34.715L91.7269 37.3394C88.2772 42.5508 87.3397 51.1364 91.0332 56.7976C89.4021 57.6787 86.1961 58.8784 81.9588 58.8034H0.458142C-1.173 68.3263 1.54557 80.6985 8.70758 89.1904C15.6634 97.4198 26.0876 101.6 39.718 101.6C69.2285 101.6 91.0707 88.0094 101.289 63.3211C105.301 63.3961 113.963 63.3399 118.406 54.848C118.688 54.3794 119.644 52.3736 120 51.6425L117.506 49.9741ZM21.6817 44.744H9.30754V55.8791H21.7004V44.744H21.6817ZM36.3244 44.744H23.9315V55.8791H36.3244V44.744ZM50.9672 44.744H38.5743V55.8791H50.9672V44.744ZM36.3244 31.2283H23.9315V42.4945H36.3244V31.2283Z" fill="url(#paint0_linear)"/>
</g>
<defs>
<linearGradient id="paint0_linear" x1="60" y1="17.6001" x2="60" y2="101.6" gradientUnits="userSpaceOnUse">
<stop stop-color="#339EEE"/>
<stop offset="1" stop-color="white" stop-opacity="0"/>
</linearGradient>
<clipPath id="clip0">
<rect width="120" height="120" fill="white"/>
</clipPath>
</defs>
</svg>
