<svg width="105" height="120" viewBox="0 0 105 120" fill="none" xmlns="http://www.w3.org/2000/svg">
<path d="M0 21.9609L43.0312 16.0312V57.6094H0V21.9609ZM0 98.0391L43.0312 103.969V62.9062H0V98.0391ZM47.7656 104.602L105 112.5V62.9062H47.7656V104.602ZM47.7656 15.3984V57.6094H105V7.5L47.7656 15.3984Z" fill="#337DE0"/>
</svg>
